{
  "pools": [
    {
	  "name": "heroesexpansion:super_soldier_serum",
      "rolls": 1,
      "entries": [
        {
          "type": "item",
          "name": "lucraftcore:injection",
          "weight": 1,
          "functions": [
            {
              "function": "set_data",
              "data": 0
            },
            {
              "function": "set_count",
              "count": 1
            },
            {
              "function": "set_nbt",
              "tag": "{\"Injection\": \"heroesexpansion:super_soldier\"}"
            }
          ]
        }
      ]
    }
  ]
}