{
  "result": {
    "item": "heroesexpansion:web_shooter_2"
  },
  "pattern": [
    "PDP",
    "BWB",
    "PCP"
  ],
  "conditions": [
    {
      "item": "heroesexpansion:web_shooter_2",
      "type": "minecraft:item_exists"
    },
    {
      "item": "minecraft:dispenser",
      "type": "minecraft:item_exists"
    },
    {
      "item": "minecraft:bucket",
      "type": "minecraft:item_exists"
    }
  ],
  "type": "forge:ore_shaped",
  "key": {
    "P": {
      "item": "#PLATESTEEL"
    },
    "B": {
      "item": "minecraft:bucket"
    },
    "C": {
      "item": "#CIRCUITADVANCED"
    },
    "D": {
      "item": "minecraft:dispenser"
    },
    "W": {
      "item": "#WIRECOPPER"
    }
  }
}