# Exported from 3D Builder

newmtl Mat_1_0
Kd 1.000000 1.000000 1.000000

newmtl Mat_3_0
Kd 0.15 0.15 0.15

newmtl Mat_2_0
Kd 0.5 0.5 0.5

newmtl Mat_0
Kd 0.5 0.5 0.5

newmtl Mat_5_0
Kd 0.56 0.35 0.07
