{
	"parent": "builtin/entity",
    "display": {
        "gui": {
            "rotation": [ 90, 50, -90 ],
            "translation": [ -0.5, 2, 0],
            "scale":[ 0.3, 0.3, 0.3 ]
        },
        "ground": {
            "rotation": [ 90, 90, 0 ],
            "translation": [ 0, 0, 0],
            "scale":[ 0.6, 0.6, 0.6 ]
        },
        "head": {
            "rotation": [ 0, 0, 0 ],
            "translation": [ 0, 0, 0],
            "scale":[ 1, 1, 1 ]
        },
        "fixed": {
            "rotation": [ 0, -90, 180 ],
            "translation": [ 1.5, -1.5, 0],
            "scale":[ 0.3, 0.3, 0.3 ]
        },
        "thirdperson_righthand": {
            "rotation": [ 0, 0, 180 ],
            "translation": [ 0, -3.5, 0],
            "scale":[ 0.5, 0.5, 0.5 ]
        },
		"thirdperson_lefthand": {
            "rotation": [ 0, 0, 180 ],
            "translation": [ 0, -3.5, 0],
            "scale":[ 0.5, 0.5, 0.5 ]
        },
        "firstperson_righthand": {
            "rotation": [ 0, 0, 0 ],
            "translation": [ 5.5, 8.5, -5],
            "scale":[ 0.5, 0.5, 0.5 ]
        },
        "firstperson_lefthand": {
            "rotation": [ 0, 0, 0 ],
            "translation": [ 5.5, 8.5, -5],
            "scale":[ 0.5, 0.5, 0.5 ]
        }
    }
}
