{
	"result": {
		"fluid": "web_fluid",
		"amount": 500
	},
  
	"input_fluid": {
		"fluid": "water",
		"amount": 1000
	},
  
	"energy": 2500,
  
	"ingredients": [
		{
			"item": "minecraft:web"
		},
		{
			"item": "#STRING"
		},
		{
			"item": "minecraft:sugar"
		},
		{
			"item": "#TINNUGGET"
		},
		{
			"item": "#SLIMEBALL"
		}
	]
}